-- Merging decision tree log ---
manifest
ADDED from /home/maksim/andstudprojects/asd/classifierofbutterflies/tensorflow/examples/android/AndroidManifest.xml:16:1-57:12
	package
		ADDED from /home/maksim/andstudprojects/asd/classifierofbutterflies/tensorflow/examples/android/AndroidManifest.xml:17:5-34
	xmlns:android
		ADDED from /home/maksim/andstudprojects/asd/classifierofbutterflies/tensorflow/examples/android/AndroidManifest.xml:16:11-69
uses-sdk
ADDED from /home/maksim/andstudprojects/asd/classifierofbutterflies/tensorflow/examples/android/AndroidManifest.xml:19:5-21:41
MERGED from [com.android.support:cardview-v7:24.0.0] /home/maksim/.android/build-cache/8c5fca3007d69bde8c9a1616cfaf49f1af63751d/output/AndroidManifest.xml:20:5-43
MERGED from [com.android.support:design:24.0.0] /home/maksim/.android/build-cache/d420be048963d3dc12f6c8551c629187267491c0/output/AndroidManifest.xml:20:5-43
MERGED from [com.android.support:recyclerview-v7:24.0.0] /home/maksim/.android/build-cache/8ff0c5cc380dbc06a1dabe70eaad31d9262feb61/output/AndroidManifest.xml:20:5-43
MERGED from [com.android.support:appcompat-v7:24.0.0] /home/maksim/.android/build-cache/b1d9600d59f29b441224c54a51341b9cffd6b75a/output/AndroidManifest.xml:21:5-23:78
MERGED from [com.android.support:animated-vector-drawable:24.0.0] /home/maksim/.android/build-cache/cde9469fcb0111702ca21deff01621ac3e1cd86e/output/AndroidManifest.xml:20:5-44
MERGED from [com.android.support:support-vector-drawable:24.0.0] /home/maksim/.android/build-cache/a3931987f835e900036d562d4cb72ffae570781e/output/AndroidManifest.xml:21:5-43
MERGED from [com.android.support:palette-v7:24.0.0] /home/maksim/.android/build-cache/16496bdad90bf2a10f4bb42fabc1dbda9785512d/output/AndroidManifest.xml:20:5-43
MERGED from [com.android.support:support-v4:24.0.0] /home/maksim/.android/build-cache/a1ba7157fac68b1fa280ba5c7e968984bf3ed4e3/output/AndroidManifest.xml:21:5-23:54
MERGED from [io.reactivex:rxandroid:1.2.1] /home/maksim/.android/build-cache/d972f3b5a4cdf56ebf8a6faf6b6bcdd22267f866/output/AndroidManifest.xml:19:5-43
	tools:overrideLibrary
		ADDED from [com.android.support:appcompat-v7:24.0.0] /home/maksim/.android/build-cache/b1d9600d59f29b441224c54a51341b9cffd6b75a/output/AndroidManifest.xml:23:9-75
	android:targetSdkVersion
		ADDED from /home/maksim/andstudprojects/asd/classifierofbutterflies/tensorflow/examples/android/AndroidManifest.xml:21:9-38
	android:minSdkVersion
		ADDED from /home/maksim/andstudprojects/asd/classifierofbutterflies/tensorflow/examples/android/AndroidManifest.xml:20:9-35
uses-feature#android.hardware.camera
ADDED from /home/maksim/andstudprojects/asd/classifierofbutterflies/tensorflow/examples/android/AndroidManifest.xml:23:5-60
	android:name
		ADDED from /home/maksim/andstudprojects/asd/classifierofbutterflies/tensorflow/examples/android/AndroidManifest.xml:23:19-57
uses-feature#android.hardware.camera.autofocus
ADDED from /home/maksim/andstudprojects/asd/classifierofbutterflies/tensorflow/examples/android/AndroidManifest.xml:24:5-70
	android:name
		ADDED from /home/maksim/andstudprojects/asd/classifierofbutterflies/tensorflow/examples/android/AndroidManifest.xml:24:19-67
uses-permission#android.permission.CAMERA
ADDED from /home/maksim/andstudprojects/asd/classifierofbutterflies/tensorflow/examples/android/AndroidManifest.xml:26:5-65
	android:name
		ADDED from /home/maksim/andstudprojects/asd/classifierofbutterflies/tensorflow/examples/android/AndroidManifest.xml:26:22-62
uses-permission#android.permission.WRITE_EXTERNAL_STORAGE
ADDED from /home/maksim/andstudprojects/asd/classifierofbutterflies/tensorflow/examples/android/AndroidManifest.xml:27:5-81
	android:name
		ADDED from /home/maksim/andstudprojects/asd/classifierofbutterflies/tensorflow/examples/android/AndroidManifest.xml:27:22-78
uses-permission#android.permission.READ_PHONE_STATE
ADDED from /home/maksim/andstudprojects/asd/classifierofbutterflies/tensorflow/examples/android/AndroidManifest.xml:28:5-75
	android:name
		ADDED from /home/maksim/andstudprojects/asd/classifierofbutterflies/tensorflow/examples/android/AndroidManifest.xml:28:22-72
uses-permission#android.permission.READ_EXTERNAL_STORAGE
ADDED from /home/maksim/andstudprojects/asd/classifierofbutterflies/tensorflow/examples/android/AndroidManifest.xml:29:5-80
	android:name
		ADDED from /home/maksim/andstudprojects/asd/classifierofbutterflies/tensorflow/examples/android/AndroidManifest.xml:29:22-77
application
ADDED from /home/maksim/andstudprojects/asd/classifierofbutterflies/tensorflow/examples/android/AndroidManifest.xml:31:5-56:19
MERGED from [com.android.support:cardview-v7:24.0.0] /home/maksim/.android/build-cache/8c5fca3007d69bde8c9a1616cfaf49f1af63751d/output/AndroidManifest.xml:22:5-20
MERGED from [com.android.support:design:24.0.0] /home/maksim/.android/build-cache/d420be048963d3dc12f6c8551c629187267491c0/output/AndroidManifest.xml:22:5-20
MERGED from [com.android.support:appcompat-v7:24.0.0] /home/maksim/.android/build-cache/b1d9600d59f29b441224c54a51341b9cffd6b75a/output/AndroidManifest.xml:25:5-20
MERGED from [com.android.support:animated-vector-drawable:24.0.0] /home/maksim/.android/build-cache/cde9469fcb0111702ca21deff01621ac3e1cd86e/output/AndroidManifest.xml:22:5-20
MERGED from [com.android.support:support-vector-drawable:24.0.0] /home/maksim/.android/build-cache/a3931987f835e900036d562d4cb72ffae570781e/output/AndroidManifest.xml:23:5-20
MERGED from [com.android.support:palette-v7:24.0.0] /home/maksim/.android/build-cache/16496bdad90bf2a10f4bb42fabc1dbda9785512d/output/AndroidManifest.xml:22:5-23:19
MERGED from [com.android.support:support-v4:24.0.0] /home/maksim/.android/build-cache/a1ba7157fac68b1fa280ba5c7e968984bf3ed4e3/output/AndroidManifest.xml:25:5-20
	android:label
		ADDED from /home/maksim/andstudprojects/asd/classifierofbutterflies/tensorflow/examples/android/AndroidManifest.xml:35:9-41
	android:allowBackup
		ADDED from /home/maksim/andstudprojects/asd/classifierofbutterflies/tensorflow/examples/android/AndroidManifest.xml:32:9-35
	android:icon
		ADDED from /home/maksim/andstudprojects/asd/classifierofbutterflies/tensorflow/examples/android/AndroidManifest.xml:33:9-45
	android:theme
		ADDED from /home/maksim/andstudprojects/asd/classifierofbutterflies/tensorflow/examples/android/AndroidManifest.xml:34:9-43
activity#org.tensorflow.demo.ui.main.MainActivity
ADDED from /home/maksim/andstudprojects/asd/classifierofbutterflies/tensorflow/examples/android/AndroidManifest.xml:36:9-45:20
	android:screenOrientation
		ADDED from /home/maksim/andstudprojects/asd/classifierofbutterflies/tensorflow/examples/android/AndroidManifest.xml:38:13-49
	android:theme
		ADDED from /home/maksim/andstudprojects/asd/classifierofbutterflies/tensorflow/examples/android/AndroidManifest.xml:39:13-47
	android:name
		ADDED from /home/maksim/andstudprojects/asd/classifierofbutterflies/tensorflow/examples/android/AndroidManifest.xml:37:13-49
intent-filter#android.intent.action.MAIN+android.intent.category.LAUNCHER
ADDED from /home/maksim/andstudprojects/asd/classifierofbutterflies/tensorflow/examples/android/AndroidManifest.xml:40:13-44:29
action#android.intent.action.MAIN
ADDED from /home/maksim/andstudprojects/asd/classifierofbutterflies/tensorflow/examples/android/AndroidManifest.xml:41:17-69
	android:name
		ADDED from /home/maksim/andstudprojects/asd/classifierofbutterflies/tensorflow/examples/android/AndroidManifest.xml:41:25-66
category#android.intent.category.LAUNCHER
ADDED from /home/maksim/andstudprojects/asd/classifierofbutterflies/tensorflow/examples/android/AndroidManifest.xml:43:17-77
	android:name
		ADDED from /home/maksim/andstudprojects/asd/classifierofbutterflies/tensorflow/examples/android/AndroidManifest.xml:43:27-74
activity#org.tensorflow.demo.ui.imageanalysis.ImageAnalysisActivity
ADDED from /home/maksim/andstudprojects/asd/classifierofbutterflies/tensorflow/examples/android/AndroidManifest.xml:46:9-50:60
	android:screenOrientation
		ADDED from /home/maksim/andstudprojects/asd/classifierofbutterflies/tensorflow/examples/android/AndroidManifest.xml:49:13-49
	android:label
		ADDED from /home/maksim/andstudprojects/asd/classifierofbutterflies/tensorflow/examples/android/AndroidManifest.xml:48:13-67
	android:theme
		ADDED from /home/maksim/andstudprojects/asd/classifierofbutterflies/tensorflow/examples/android/AndroidManifest.xml:50:13-57
	android:name
		ADDED from /home/maksim/andstudprojects/asd/classifierofbutterflies/tensorflow/examples/android/AndroidManifest.xml:47:13-67
activity#org.tensorflow.demo.ui.settings.SettingsActivity
ADDED from /home/maksim/andstudprojects/asd/classifierofbutterflies/tensorflow/examples/android/AndroidManifest.xml:51:9-55:60
	android:screenOrientation
		ADDED from /home/maksim/andstudprojects/asd/classifierofbutterflies/tensorflow/examples/android/AndroidManifest.xml:54:13-49
	android:label
		ADDED from /home/maksim/andstudprojects/asd/classifierofbutterflies/tensorflow/examples/android/AndroidManifest.xml:53:13-60
	android:theme
		ADDED from /home/maksim/andstudprojects/asd/classifierofbutterflies/tensorflow/examples/android/AndroidManifest.xml:55:13-57
	android:name
		ADDED from /home/maksim/andstudprojects/asd/classifierofbutterflies/tensorflow/examples/android/AndroidManifest.xml:52:13-57
